Abeille Paul-Antoine,Montagnier Yrlan,B2 info,https://gitlab.com/yrlan.montagnier/B2_WireguardVPN
enzo peyrataud,lucas fallous,mathis coco,B2 Info,https://gitlab.com/EPEYRATAUD/projet-linux-b2/
Adrien Clamadieu-Tharaud et Nicolas de Bengy https://gitlab.com/daystayyy/tp-linux/-/tree/main/Tp3%20Linux
Kolo Michel https://github.com/rastain42/FlutterInfraProject 

